{"rows":8,"cols":8,"words":["BELT","BOOTS","GLASSES","HAT","JACKET","SASHES","SHAWL","SHOES"],

"boardCharacters":[
["L","I","B","O","O","T","S","T"],
["S","H","A","W","L","E","E","E"],
["C","E","K","E","S","K","O","S"],
["U","I","B","S","K","C","H","B"],
["L","R","A","I","R","A","S","W"],
["K","L","Q","T","T","J","Z","B"],
["G","L","O","V","E","S","F","C"],
["S","E","H","S","A","S","V","M"]],

"wordPlacements":[
{"word":"BELT","row":3,"col":2,"h":1,"v":-1},
{"word":"BOOTS","row":0,"col":2,"h":1,"v":0},
{"word":"GLASSES","row":6,"col":0,"h":1,"v":-1},
{"word":"HAT","row":3,"col":6,"h":-1,"v":1},
{"word":"JACKET","row":5,"col":5,"h":0,"v":-1},
{"word":"SASHES","row":7,"col":5,"h":-1,"v":0},
{"word":"SHAWL","row":1,"col":0,"h":1,"v":0},
{"word":"SHOES","row":6,"col":4,"h":0,"v":-1}]}






























