{"rows":9,"cols":9,"words":
["ADOBE","AIRTEL","CHASE","HAIER","HAVAL","HYATT","NISSAN","PEPSI","ROGERS","WIPRO"],

"boardCharacters":[
["N","T","S","F","T","U","V","G","H"],
["R","M","D","T","E","J","E","M","A"],
["E","C","A","R","L","L","B","L","I"],
["S","Y","W","I","P","R","O","A","E"],
["H","K","A","F","R","E","D","V","R"],
["I","S","P","E","P","T","A","A","Y"],
["N","A","S","S","I","N","E","H","K"],
["R","O","G","E","R","S","N","L","M"],
["X","C","H","A","S","E","A","L","Z"]],

"wordPlacements":
[{"word":"ADOBE","row":6,"col":6,"h":0,"v":-1},
{"word":"AIRTEL","row":2,"col":2,"h":1,"v":1},
{"word":"CHASE","row":1,"col":1,"h":1,"v":0},
{"word":"HAIER","row":8,"col":0,"h":0,"v":1},
{"word":"HAVAL","row":7,"col":7,"h":0,"v":-1},
{"word":"HYATT","row":4,"col":0,"h":1,"v":-1},
{"word":"NISSAN","row":5,"col":5,"h":-1,"v":0},
{"word":"PEPSI","row":4,"col":4,"h":-1,"v":0},
{"word":"ROGERS","row":7,"col":0,"h":1,"v":0},
{"word":"WIPRO","row":2,"col":2,"h":1,"v":0}]}















































































