{"rows":10,"cols":10,"words":
["AIRBUS","COSTCO","DISNEY","FEDEX","GUCCI","HILTON","HUMANA","INTEL","OPTUM","ORACLE","TARGET","TIKTOK"],

"boardCharacters":[
["A","I","T","Q","Q","M","T","J","E","X"],
["R","N","N","O","T","L","I","H","L","B"],
["I","M","A","T","C","T","K","K","C","C"],
["C","R","R","M","E","N","T","Q","A","O"],
["C","I","J","G","U","L","O","E","R","S"],
["U","O","R","K","E","H","K","A","O","T"],
["G","A","V","F","E","D","E","X","S","C"],
["T","S","U","B","R","I","A","R","E","O"],
["O","P","T","U","M","I","A","L","B","T"],
["H","K","J","N","Y","E","N","S","I","D"]],

"wordPlacements":
[{"word":"AIRBUS","row":6,"col":6,"h":-1,"v":0},
{"word":"COSTCO","row":9,"col":9,"h":0,"v":1},
{"word":"DISNEY","row":9,"col":9,"h":-1,"v":0},
{"word":"FEDEX","row":3,"col":3,"h":1,"v":0},
{"word":"GUCCI","row":6,"col":0,"h":0,"v":-1},
{"word":"HILTON","row":7,"col":7,"h":-1,"v":0},
{"word":"HUMANA","row":5,"col":5,"h":-1,"v":-1},
{"word":"INTEL","row":1,"col":0,"h":1,"v":1},
{"word":"OPTUM","row":8,"col":0,"h":1,"v":0},
{"word":"ORACLE","row":8,"col":8,"h":0,"v":-1},
{"word":"TARGET","row":7,"col":0,"h":1,"v":-1},
{"word":"TIKTOK","row":6,"col":0,"h":0,"v":-1}]}
























































































