{"rows":7,"cols":7,
"words":["ANTZ","BRAVE","ICEAGE","NINE","REDLINE","SHREK","TOWER"],

"boardCharacters":[
["E","V","A","R","B","I","T"],
["A","N","T","Z","M","C","K"],
["E","N","I","N","K","E","K"],
["O","N","R","L","R","A","I"],
["N","D","A","H","D","G","R"],
["I","J","S","Q","P","E","I"],
["H","N","T","O","W","E","R"]
],

"wordPlacements":
[{"word":"ANTZ","row":1,"col":0,"h":1,"v":0},
{"word":"BRAVE","row":0,"col":4,"h":-1,"v":0},
{"word":"ICEAGE","row":0,"col":5,"h":0,"v":1},
{"word":"NINE","row":2,"col":3,"h":-1,"v":0},
{"word":"REDLINE","row":6,"col":6,"h":-1,"v":-1},
{"word":"SHREK","row":5,"col":2,"h":1,"v":-1},
{"word":"TOWER","row":6,"col":2,"h":1,"v":0}]}