{"rows":6,"cols":6,"words":["BLAST","EVENT","FETE","GALA","GIFT","LENT","PARTY"],
"boardCharacters":[
["D","P","A","R","T","Y"],
["E","S","X","L","E","N"],
["G","T","Y","V","A","B"],
["I","L","E","N","T","G"],
["F","N","T","F","A","E"],
["T","S","A","L","B","V"]
],
"wordPlacements":[
{"word":"BLAST","row":5,"col":4,"h":-1,"v":0},
{"word":"EVENT","row":1,"col":0,"h":-1,"v":1},
{"word":"FETE","row":4,"col":3,"h":-1,"v":-1},
{"word":"GALA","row":3,"col":5,"h":-1,"v":-1},
{"word":"GIFT","row":2,"col":0,"h":0,"v":1},
{"word":"LENT","row":3,"col":1,"h":1,"v":0},
{"word":"PARTY","row":0,"col":1,"h":1,"v":0}]}





















