{"rows":10,"cols":10,"words":
["BLOWOUT","CAROUSAL","CELEBRATE","CEREMONY","HOLIDAY","JUBILEE","PARADE","PASSOVER","RECEPTION","SEASON"],
"boardCharacters":[
["R","E","L","A","S","U","O","R","A","C"],
["E","C","E","R","E","M","O","N","Y","Z"],
["V","T","Y","T","U","O","W","O","L","B"],
["O","P","A","R","A","D","E","I","G","E"],
["S","L","D","R","V","G","L","T","D","E"],
["S","H","I","E","B","Q","X","P","M","L"],
["A","H","L","G","Y","E","N","E","Q","I"],
["P","N","O","K","H","Q","L","C","I","B"],
["W","C","H","N","O","S","A","E","S","U"],
["Y","A","W","G","N","H","R","R","C","J"]
],
"wordPlacements":[
{"word":"BLOWOUT","row":2,"col":9,"h":-1,"v":0},
{"word":"CAROUSAL","row":0,"col":9,"h":-1,"v":0},
{"word":"CELEBRATE","row":9,"col":8,"h":-1,"v":-1},
{"word":"CEREMONY","row":1,"col":1,"h":1,"v":0},
{"word":"HOLIDAY","row":8,"col":2,"h":0,"v":-1},
{"word":"JUBILEE","row":9,"col":9,"h":0,"v":-1},
{"word":"PARADE","row":3,"col":1,"h":1,"v":0},
{"word":"PASSOVER","row":7,"col":0,"h":0,"v":-1},
{"word":"RECEPTION","row":8,"col":7,"h":0,"v":-1},
{"word":"SEASON","row":8,"col":8,"h":-1,"v":0}]}





















