{"rows":10,"cols":10,"words":
["BALLOONS","FASTING","HONORING","HULLABALOO","JOVIALITY","MERRIMENT","RAMADAN","RIBBON","WEDDING"],
"boardCharacters":[
["G","S","D","O","O","O","N","T","M","O"],
["G","N","I","D","D","E","W","Q","E","O"],
["N","O","I","T","D","M","K","J","R","L"],
["I","O","N","T","P","Z","Z","A","R","A"],
["R","L","D","W","S","P","M","J","I","B"],
["O","L","U","V","N","A","B","G","M","A"],
["N","A","T","P","D","U","F","X","E","L"],
["O","B","T","A","C","L","P","B","N","L"],
["H","K","N","O","B","B","I","R","T","U"],
["Y","T","I","L","A","I","V","O","J","H"]
],
"wordPlacements":[
{"word":"BALLOONS","row":7,"col":1,"h":0,"v":-1},
{"word":"FASTING","row":6,"col":6,"h":-1,"v":-1},
{"word":"HONORING","row":8,"col":0,"h":0,"v":-1},
{"word":"HULLABALOO","row":9,"col":9,"h":0,"v":-1},
{"word":"JOVIALITY","row":9,"col":8,"h":-1,"v":0},
{"word":"MERRIMENT","row":0,"col":8,"h":0,"v":1},
{"word":"RAMADAN","row":2,"col":8,"h":-1,"v":1},
{"word":"RIBBON","row":8,"col":7,"h":-1,"v":0},
{"word":"WEDDING","row":1,"col":3,"h":-1,"v":0}]}



























