{"rows":12,"cols":12,"words":
["ANNIVERSARY","CELEBRATION","HALLOWEEN","JUBILATION","NEWYEAR","OBSERVANCE","PROCESSION"],
"boardCharacters":[
["E","A","J","D","C","Z","D","K","V","N","C","N"],
["N","C","N","C","A","O","H","P","R","E","O","A"],
["E","M","N","E","V","Y","X","J","L","I","W","J"],
["E","G","N","A","W","F","T","E","S","V","T","N"],
["W","G","V","O","V","Y","B","S","V","D","N","R"],
["O","Y","R","A","S","R","E","V","I","N","N","A"],
["L","E","O","G","A","C","E","A","Y","M","S","I"],
["L","A","B","T","O","I","H","S","R","L","I","V"],
["A","Y","I","R","G","Z","V","P","B","R","Z","H"],
["H","O","P","H","H","I","D","C","J","O","S","K"],
["N","J","U","B","I","L","A","T","I","O","N","V"],
["D","Y","A","D","H","T","R","I","B","G","Y","S"]
],
"wordPlacements":[
{"word":"ANNIVERSARY","row":5,"col":11,"h":-1,"v":0},
{"word":"CELEBRATION","row":0,"col":10,"h":-1,"v":1},
{"word":"HALLOWEEN","row":9,"col":0,"h":0,"v":-1},
{"word":"JUBILATION","row":10,"col":1,"h":1,"v":0},
{"word":"NEWYEAR","row":1,"col":2,"h":1,"v":1},
{"word":"OBSERVANCE","row":9,"col":9,"h":-1,"v":-1},
{"word":"PROCESSION","row":9,"col":2,"h":1,"v":-1}]}































