{"rows":8,"cols":8,"words":["BALANCE","BLOT","BRUSHES","CANVAS","COLOR","CONTRAST","ETCH","LACQUER","UNIQUE"],
"boardCharacters":[
["C","O","N","T","R","A","S","T"],
["S","E","H","S","U","R","B","H"],
["A","E","U","G","O","A","L","C"],
["V","S","V","Q","L","Q","O","T"],
["N","N","N","A","I","L","T","E"],
["A","Q","N","S","O","N","D","A"],
["C","C","R","R","Q","A","U","J"],
["E","R","E","U","Q","C","A","L"]],

"wordPlacements":[
{"word":"BALANCE","row":1,"col":6,"h":-1,"v":1},
{"word":"BLOT","row":1,"col":6,"h":0,"v":1},
{"word":"BRUSHES","row":1,"col":6,"h":-1,"v":0},
{"word":"CANVAS","row":7,"col":0,"h":0,"v":-1},
{"word":"COLOR","row":2,"col":7,"h":-1,"v":1},
{"word":"CONTRAST","row":0,"col":0,"h":1,"v":0},
{"word":"ETCH","row":4,"col":7,"h":0,"v":-1},
{"word":"LACQUER","row":7,"col":7,"h":-1,"v":0},
{"word":"UNIQUE","row":6,"col":6,"h":-1,"v":-1}]}






































