{"rows":8,"cols":8,"words":["BENCH","BLADE","BLOCK","CUT","FIRMER","OBJECT","PATTERN","RASP","STAND","TOOL","WOOD"],
"boardCharacters":[
["B","L","A","D","E","O","N","S"],
["Q","L","O","O","T","U","C","T"],
["I","O","O","H","R","F","T","A"],
["W","G","B","C","R","I","X","N"],
["R","Z","J","N","K","R","Z","D"],
["A","U","E","E","L","M","N","W"],
["S","R","C","B","U","E","Z","M"],
["P","A","T","T","E","R","N","D"]],

"wordPlacements":[
{"word":"BENCH","row":6,"col":3,"h":0,"v":-1},
{"word":"BLADE","row":0,"col":0,"h":1,"v":0},
{"word":"BLOCK","row":0,"col":0,"h":1,"v":1},
{"word":"CUT","row":1,"col":6,"h":-1,"v":0},
{"word":"FIRMER","row":2,"col":5,"h":0,"v":1},
{"word":"OBJECT","row":2,"col":2,"h":0,"v":1},
{"word":"PATTERN","row":7,"col":0,"h":1,"v":0},
{"word":"RASP","row":4,"col":0,"h":0,"v":1},
{"word":"STAND","row":0,"col":7,"h":0,"v":1},
{"word":"TOOL","row":1,"col":1,"h":-1,"v":0},
{"word":"WOOD","row":3,"col":0,"h":1,"v":-1}]}


























































































