{"rows":9,"cols":9,"words":["ARCH","BRIDGE","COTTAGE","DOOR","GOTHIC","HUT","PAGODA","PORTAL","SPIRE","TEMPLE","TOWER"],
"boardCharacters":[
["E","L","P","M","E","T","Z","G","S"],
["C","O","T","T","A","G","E","O","Z"],
["L","A","R","C","H","L","E","T","T"],
["Z","A","D","U","T","X","W","H","V"],
["D","O","T","O","W","E","R","I","E"],
["A","B","M","R","G","O","E","C","R"],
["Y","S","H","L","O","A","O","K","I"],
["U","X","M","D","B","P","P","T","P"],
["E","G","D","I","R","B","W","F","S"]],

"wordPlacements":[
{"word":"ARCH","row":2,"col":1,"h":1,"v":0},
{"word":"BRIDGE","row":8,"col":5,"h":-1,"v":0},
{"word":"COTTAGE","row":1,"col":0,"h":1,"v":0},
{"word":"DOOR","row":7,"col":3,"h":1,"v":-1},
{"word":"GOTHIC","row":0,"col":7,"h":0,"v":1},
{"word":"HUT","row":2,"col":4,"h":-1,"v":1},
{"word":"PAGODA","row":7,"col":6,"h":-1,"v":-1},
{"word":"PORTAL","row":7,"col":5,"h":-1,"v":-1},
{"word":"SPIRE","row":8,"col":8,"h":0,"v":-1},
{"word":"TEMPLE","row":0,"col":0,"h":-1,"v":0},
{"word":"TOWER","row":4,"col":2,"h":1,"v":0}]}







































































































