{"rows":12,"cols":12,
    "words":["EARACHE","ENCEPHALITIS","EPILEPSY","INFLUENZA","MUMPS","OBESITY","PLEURISY","ROSACEA","URTICARIA"],
    "boardCharacters":[["Y","R","J","J","G","Y","I","E","A","E","H","A"],
                       ["U","S","Y","S","T","T","P","Z","E","A","Z","O"],
                       ["M","W","I","B","O","I","N","M","C","R","N","W"],
                       ["A","D","I","R","L","E","E","B","A","A","T","Q"],
                       ["B","M","D","E","U","M","M","M","S","C","E","V"],
                       ["Y","O","P","L","V","E","U","R","O","H","L","T"],
                       ["W","S","F","I","V","Q","L","M","R","E","M","N"],
                       ["Y","N","K","O","P","L","S","P","P","O","S","H"],
                       ["I","Y","T","I","S","E","B","O","E","S","D","V"],
                       ["E","N","C","E","P","H","A","L","I","T","I","S"],
                       ["U","R","T","I","C","A","R","I","A","Q","M","F"],
                       ["B","O","D","O","Q","B","T","K","T","W","V","R"]],
    
     "wordPlacements":[{"word":"EARACHE","row":9,"col":0,"h":0,"v":1},
                      {"word":"ENCEPHALITIS","row":9,"col":0,"h":1,"v":0},
                      {"word":"EPILEPSY","row":7,"col":0,"h":-1,"v":1},
                      {"word":"INFLUENZA","row":8,"col":0,"h":1,"v":-1},
                      {"word":"MUMPS","row":5,"col":5,"h":1,"v":1},
                      {"word":"OBESITY","row":7,"col":7,"h":-1,"v":0},
                      {"word":"PLEURISY","row":7,"col":7,"h":-1,"v":-1},
                      {"word":"ROSACEA","row":8,"col":8,"h":0,"v":-1},
                      {"word":"URTICARIA","row":10,"col":0,"h":1,"v":0}
                      ]}


































































































