{"rows":6,"cols":6,
    "words":["ACNE","COMA","COUGH","FLU","GOUT","HIV"],
    "boardCharacters":[["F","A","X","H","C","E"],
                       ["D","L","I","T","O","N"],
                       ["D","V","U","O","M","C"],
                       ["T","U","O","G","A","A"],
                       ["C","O","U","G","H","G"],
                       ["Q","O","F","I","C","A"]],
    
    "wordPlacements":[{"word":"ACNE","row":5,"col":5,"h":0,"v":-1},
                      {"word":"COMA","row":4,"col":0,"h":0,"v":1},
                      {"word":"COUGH","row":4,"col":0,"h":1,"v":0},
                      {"word":"FLU","row":0,"col":0,"h":1,"v":1},
                      {"word":"GOUT","row":3,"col":3,"h":-1,"v":0},
                      {"word":"HIV","row":3,"col":0,"h":-1,"v":1}
                      ]}











































































































