{"rows":11,"cols":11,
    "words":["ANXIETY","BRONCHITIS","CIRRHOSIS","DIARRHOEA","GONORRHOEA","HEPATITIS","NOSEBLEED","SINUSITIS"],
    "boardCharacters":[["S","D","I","A","R","R","H","O","E","A","F"],
                       ["I","N","B","Z","Y","F","Q","A","L","H","G"],
                       ["S","M","L","G","L","L","U","Z","S","L","K"],
                       ["O","W","D","F","F","U","Y","Z","P","W","Y"],
                       ["H","J","V","I","S","T","V","I","V","G","P"],
                       ["R","T","D","E","E","L","B","E","S","O","N"],
                       ["R","C","S","I","N","U","S","I","T","I","S"],
                       ["I","N","X","T","D","D","J","Q","K","O","B"],
                       ["C","N","S","I","T","I","T","A","P","E","H"],
                       ["A","B","R","O","N","C","H","I","T","I","S"],
                       ["A","E","O","H","R","R","O","N","O","G","P"]],
    
    "wordPlacements":[{"word":"ANXIETY","row":9,"col":0,"h":1,"v":-1},
                      {"word":"BRONCHITIS","row":1,"col":1,"h":1,"v":0},
                      {"word":"CIRRHOSIS","row":8,"col":0,"h":0,"v":-1},
                      {"word":"DIARRHOEA","row":1,"col":0,"h":1,"v":0},
                      {"word":"GONORRHOEA","row":9,"col":9,"h":-1,"v":0},
                      {"word":"HEPATITIS","row":10,"col":10,"h":-1,"v":0},
                      {"word":"NOSEBLEED","row":10,"col":10,"h":-1,"v":0},
                      {"word":"SINUSITIS","row":10,"col":10,"h":-1,"v":0}
                      ]}




































































































