{"rows":14,"cols":14,
  "words":["ADVENTUROUS","COOPERATIVE","DETERMINED","HARDWORKING","IMAGINATIVE","INDEPENDENT","INTELLIGENT","MISCHIEVOUS","MISERABLE","RESPONSIBLE"],
    "boardCharacters":[["E","M","E","B","I","M","K","D","M","D","J","E","H","T"],
                       ["N","V","F","L","V","K","E","K","E","G","V","T","A","N"],
                       ["A","A","I","B","B","U","F","T","L","I","P","N","R","E"],
                       ["J","D","M","T","V","A","E","P","T","V","P","E","D","D"],
                       ["W","B","V","N","A","R","R","A","B","I","C","G","W","N"],
                       ["Q","B","D","E","M","N","R","E","Y","N","V","I","O","E"],
                       ["B","R","T","I","N","E","I","J","S","E","R","L","R","P"],
                       ["X","K","N","S","P","T","C","G","W","I","W","L","K","E"],
                       ["O","E","M","O","C","E","U","J","A","Y","M","E","I","D"],
                       ["D","D","O","O","P","W","D","R","N","M","I","T","N","N"],
                       ["Z","C","H","Q","U","F","U","J","O","T","I","N","G","I"],
                       ["M","I","S","C","H","I","E","V","O","U","S","I","V","E"],
                       ["U","Y","E","L","B","I","S","N","O","P","S","E","R","L"],
                       ["N","O","S","M","Q","W","J","V","S","C","Q","K","C","F"]],
    
    "wordPlacements":[{"word":"ADVENTUROUS","row":2,"col":0,"h":1,"v":1},
                      {"word":"COOPERATIVE","row":1,"col":1,"h":1,"v":-1},
                      {"word":"DETERMINED","row":9,"col":0,"h":-1,"v":1},
                      {"word":"HARDWORKING","row":12,"col":0,"h":0,"v":-1},
                      {"word":"IMAGINATIVE","row":10,"col":10,"h":-1,"v":-1},
                      {"word":"INDEPENDENT","row":13,"col":13,"h":0,"v":-1},
                      {"word":"INTELLIGENT","row":11,"col":11,"h":0,"v":-1},
                      {"word":"MISCHIEVOUS","row":11,"col":0,"h":1,"v":0},
                      {"word":"MISERABLE","row":10,"col":10,"h":-1,"v":-1},
                      {"word":"RESPONSIBLE","row":12,"col":12,"h":-1,"v":0}
                      ]}






























































































































