{"rows":6,"cols":6,
    "words":["BRAVE","CALM","RICH","SHY","SLY","WEAK","WISE"],
    "boardCharacters":[["B","R","A","V","E","C"],
                       ["J","Y","H","S","A","H"],
                       ["U","I","I","L","D","C"],
                       ["C","W","M","Y","P","I"],
                       ["A","V","D","H","X","R"],
                       ["K","A","E","W","I","B"]],
    
    "wordPlacements":[{"word":"BRAVE","row":0,"col":0,"h":1,"v":0},
                      {"word":"CALM","row":5,"col":0,"h":-1,"v":1},
                      {"word":"RICH","row":5,"col":5,"h":0,"v":-1},
                      {"word":"SHY","row":3,"col":3,"h":-1,"v":0},
                      {"word":"SLY","row":3,"col":3,"h":0,"v":1},
                      {"word":"WEAK","row":3,"col":3,"h":-1,"v":0},
                      {"word":"WISE","row":1,"col":1,"h":1,"v":-1}
                      ]}

















































































































