{"rows":8,"cols":8,
  "words":["DARING","EAGER","FAITHFUL","FOOLISH","GRUMPY","HOPEFUL","JEALOUS","WITTY"],
    "boardCharacters":[["H","Y","A","J","Z","L","M","F"],
                       ["D","S","W","E","E","U","Y","A"],
                       ["Y","J","I","A","F","F","T","I"],
                       ["O","P","G","L","A","E","T","T"],
                       ["F","E","M","O","O","P","I","H"],
                       ["R","L","F","U","F","O","W","F"],
                       ["F","M","P","S","R","H","F","U"],
                       ["D","A","R","I","N","G","E","L"]],
    
    "wordPlacements":[{"word":"DARING","row":7,"col":0,"h":1,"v":0},
                      {"word":"EAGER","row":4,"col":4,"h":-1,"v":1},
                      {"word":"FAITHFUL","row":7,"col":0,"h":0,"v":1},
                      {"word":"FOOLISH","row":6,"col":6,"h":-1,"v":-1},
                      {"word":"GRUMPY","row":5,"col":5,"h":-1,"v":-1},
                      {"word":"HOPEFUL","row":5,"col":5,"h":0,"v":-1},
                      {"word":"JEALOUS","row":3,"col":0,"h":0,"v":1},
                      {"word":"WITTY","row":6,"col":6,"h":0,"v":-1}
                      ]}



















































































































