{"rows":12,"cols":12,
  "words":["CAREFREE","CONCEITED","CREATIVE","ENERGETIC","GENEROUS","PATRIOTIC","SELFISH","SERIOUS","STUDIOUS","SUCCESSFUL","TOLERANT"],
    "boardCharacters":[["D","I","T","P","T","A","B","O","O","C","N","N"],
                       ["E","W","S","G","W","B","S","S","V","F","S","R"],
                       ["T","P","S","U","O","R","E","N","E","G","U","T"],
                       ["I","R","U","L","O","P","G","U","G","J","C","O"],
                       ["E","A","O","C","U","I","F","C","S","W","C","L"],
                       ["C","O","I","B","C","A","R","E","F","R","E","E"],
                       ["N","S","D","V","Z","H","L","E","E","M","S","R"],
                       ["O","W","U","U","D","F","Z","A","S","E","S","A"],
                       ["C","I","T","O","I","R","T","A","P","L","F","N"],
                       ["Q","B","S","S","K","I","K","U","I","B","U","T"],
                       ["H","X","H","V","V","T","I","Z","F","P","L","H"],
                       ["X","E","N","E","R","G","E","T","I","C","P","U"]],
    
    "wordPlacements":[{"word":"CAREFREE","row":4,"col":4,"h":1,"v":0},
                      {"word":"CONCEITED","row":8,"col":0,"h":0,"v":-1},
                      {"word":"CREATIVE","row":10,"col":10,"h":-1,"v":1},
                      {"word":"ENERGETIC","row":1,"col":1,"h":1,"v":0},
                      {"word":"GENEROUS","row":9,"col":9,"h":-1,"v":0},
                      {"word":"PATRIOTIC","row":8,"col":8,"h":-1,"v":0},
                      {"word":"SELFISH","row":8,"col":8,"h":-1,"v":1},
                      {"word":"SERIOUS","row":8,"col":8,"h":-1,"v":-1},
                      {"word":"STUDIOUS","row":2,"col":2,"h":0,"v":-1},
                      {"word":"SUCCESSFUL","row":10,"col":10,"h":0,"v":1},
                      {"word":"TOLERANT","row":11,"col":11,"h":0,"v":1}
                      ]}




















































































































