{"rows":12,"cols":12,
  "words":["AMBITIOUS","COURAGEOUS","DEMANDING","MANNERLY","RESOURCEFUL","RESPECTFUL","STUBBORN","THOUGHTFUL","TRUSTWORTHY"],
    "boardCharacters":[["R","X","Q","D","B","A","S","N","J","L","E","T"],
                       ["E","E","G","N","I","D","N","A","M","E","D","R"],
                       ["S","K","S","R","K","P","Y","Z","E","S","I","U"],
                       ["P","V","K","O","M","W","M","V","O","U","T","S"],
                       ["E","E","E","B","U","A","L","Q","Y","O","L","T"],
                       ["C","Z","L","B","T","R","N","A","F","E","D","W"],
                       ["T","V","N","U","C","C","C","N","N","G","V","O"],
                       ["F","M","O","T","B","F","T","E","E","A","W","R"],
                       ["U","D","B","S","S","G","O","X","F","R","G","T"],
                       ["L","T","H","O","U","G","H","T","F","U","L","H"],
                       ["S","U","O","I","T","I","B","M","A","O","L","Y"],
                       ["W","W","T","Y","V","M","P","Z","Q","C","T","K"]],
    
    "wordPlacements":[{"word":"AMBITIOUS","row":8,"col":8,"h":-1,"v":0},
                      {"word":"COURAGEOUS","row":9,"col":9,"h":0,"v":-1},
                      {"word":"DEMANDING","row":10,"col":10,"h":-1,"v":0},
                      {"word":"MANNERLY","row":4,"col":4,"h":1,"v":1},
                      {"word":"RESOURCEFUL","row":0,"col":0,"h":1,"v":1},
                      {"word":"RESPECTFUL","row":0,"col":0,"h":0,"v":1},
                      {"word":"STUBBORN","row":3,"col":3,"h":0,"v":-1},
                      {"word":"THOUGHTFUL","row":1,"col":1,"h":1,"v":0},
                      {"word":"TRUSTWORTHY","row":11,"col":0,"h":0,"v":1}
                      ]}



















































































































