{"rows":11,"cols":11,
    "words":["BAOTOU","CHANGSHA","DALIAN","FOSHAN","LIUZHOU","NANJING","SUZHOU","TANGSHAN","TIANJIN","WUHAN","WUXI","ZIBO"],
    "boardCharacters":[["V","F","Q","T","N","Y","D","E","G","G","A"],
                       ["D","U","P","N","I","N","F","N","P","N","H"],
                       ["A","O","J","Y","A","A","A","D","D","I","S"],
                       ["B","T","L","I","K","H","N","T","X","J","G"],
                       ["H","O","L","O","S","U","S","J","V","N","N"],
                       ["O","A","J","G","R","W","U","O","I","A","A"],
                       ["D","B","N","Z","U","S","Z","K","F","N","H"],
                       ["H","A","L","X","V","X","H","K","T","F","C"],
                       ["T","F","I","D","B","C","O","B","I","Z","H"],
                       ["Y","S","U","O","H","Z","U","I","L","W","E"],
                       ["L","V","X","Y","R","H","X","S","Q","R","X"]],
    
    "wordPlacements":[{"word":"BAOTOU","row":1,"col":1,"h":0,"v":-1},
                      {"word":"CHANGSHA","row":10,"col":10,"h":0,"v":-1},
                      {"word":"DALIAN","row":6,"col":0,"h":1,"v":-1},
                      {"word":"FOSHAN","row":8,"col":8,"h":-1,"v":-1},
                      {"word":"LIUZHOU","row":8,"col":8,"h":-1,"v":0},
                      {"word":"NANJING","row":9,"col":9,"h":0,"v":-1},
                      {"word":"SUZHOU","row":6,"col":6,"h":0,"v":1},
                      {"word":"TANGSHAN","row":8,"col":0,"h":1,"v":-1},
                      {"word":"TIANJIN","row":3,"col":0,"h":1,"v":1},
                      {"word":"WUHAN","row":5,"col":5,"h":0,"v":-1},
                      {"word":"WUXI","row":5,"col":5,"h":-1,"v":1},
                      {"word":"ZIBO","row":9,"col":9,"h":-1,"v":0}
                      ]}










































































































