{"rows":10,"cols":10,
    "words":["CHIBA","FUKUOKA","KAWASAKI","KOBE","KYOTO","NAGOYA","OSAKA","SAITAMA","SAKAI","SAPPORO","SENDAI","TOKYO"],
    "boardCharacters":[["K","A","W","A","S","A","K","I","S","N"],
                       ["O","Y","K","O","T","E","E","M","A","C"],
                       ["H","S","O","K","R","B","N","G","I","X"],
                       ["J","A","A","T","O","O","O","D","T","F"],
                       ["L","A","K","K","O","Y","P","X","A","W"],
                       ["H","K","O","J","A","D","W","P","M","I"],
                       ["Q","K","U","D","L","B","D","C","A","L"],
                       ["V","Y","K","E","O","X","I","K","V","D"],
                       ["P","C","U","Z","T","V","A","H","X","I"],
                       ["I","K","F","L","B","S","M","X","C","W"]],
    
    "wordPlacements":[{"word":"CHIBA","row":8,"col":8,"h":-1,"v":-1},
                      {"word":"FUKUOKA","row":2,"col":2,"h":0,"v":-1},
                      {"word":"KAWASAKI","row":0,"col":0,"h":1,"v":0},
                      {"word":"KOBE","row":3,"col":3,"h":1,"v":-1},
                      {"word":"KYOTO","row":0,"col":0,"h":1,"v":1},
                      {"word":"NAGOYA","row":9,"col":0,"h":-1,"v":1},
                      {"word":"OSAKA","row":1,"col":0,"h":1,"v":1},
                      {"word":"SAITAMA","row":8,"col":0,"h":0,"v":1},
                      {"word":"SAKAI","row":4,"col":0,"h":1,"v":0},
                      {"word":"SAPPORO","row":9,"col":9,"h":-1,"v":-1},
                      {"word":"SENDAI","row":4,"col":0,"h":1,"v":1},
                      {"word":"TOKYO","row":4,"col":4,"h":-1,"v":0}
                      ]}











































































































