{"rows":7,"cols":7,
    "words":["BHOPAL","DELHI","INDORE","JAIPUR","KANPUR","NAGPUR","PUNE","SURAT"],
    "boardCharacters":[["T","A","R","U","S","P","X"],
                       ["I","H","L","E","D","J","J"],
                       ["E","R","O","D","N","I","A"],
                       ["Z","Q","B","T","J","U","I"],
                       ["N","A","G","P","U","R","P"],
                       ["B","H","O","P","A","L","U"],
                       ["D","K","A","N","P","U","R"]],
    
    "wordPlacements":[{"word":"BHOPAL","row":5,"col":0,"h":1,"v":0},
                      {"word":"DELHI","row":4,"col":4,"h":-1,"v":0},
                      {"word":"INDORE","row":5,"col":5,"h":-1,"v":0},
                      {"word":"JAIPUR","row":6,"col":6,"h":0,"v":1},
                      {"word":"KANPUR","row":1,"col":1,"h":1,"v":0},
                      {"word":"NAGPUR","row":4,"col":0,"h":1,"v":0},
                      {"word":"PUNE","row":6,"col":6,"h":-1,"v":-1},
                      {"word":"SURAT","row":4,"col":0,"h":-1,"v":0}
                      ]}












































































































