{"rows":5,"cols":5,"words":["RYE","RICE","OATS","EEL","CRAB","COD"],
"boardCharacters":[
["R","D","C","R","B"],
["L","Y","O","I","A"],
["A","E","E","C","R"],
["R","Q","E","E","C"],
["S","T","A","O","F"]
],
"wordPlacements":[
{"word":"RYE","row":0,"col":0,"h":1,"v":1},
{"word":"RICE","row":0,"col":3,"h":0,"v":1},
{"word":"OATS","row":4,"col":3,"h":-1,"v":0},
{"word":"EEL","row":3,"col":2,"h":-1,"v":-1},
{"word":"CRAB","row":3,"col":4,"h":0,"v":-1},
{"word":"COD","row":2,"col":3,"h":-1,"v":-1}]}