{"rows":7,"cols":7,"words":["APPLE","BANANA","GRAPES","LYCHEE","MANGO","PLUMS"],
"boardCharacters":[
["E","E","H","C","Y","L","G"],
["B","O","P","L","X","X","R"],
["J","A","G","L","V","X","A"],
["T","P","N","N","U","A","P"],
["P","C","T","A","A","M","E"],
["L","Q","O","F","N","M","S"],
["A","P","P","L","E","A","Q"]
],
"wordPlacements":[
{"word":"APPLE","row":6,"col":0,"h":1,"v":0},
{"word":"BANANA","row":1,"col":0,"h":1,"v":1},
{"word":"GRAPES","row":0,"col":6,"h":0,"v":1},
{"word":"LYCHEE","row":0,"col":5,"h":-1,"v":0},
{"word":"MANGO","row":5,"col":5,"h":-1,"v":-1},
{"word":"PLUMS","row":1,"col":2,"h":1,"v":1}]}