{"rows":9,"cols":9,
"words":["LOBSTER","MUSSELS","OCTOPUS","PRAWN","SCALLOP","SHRIMP","SNAPPER","SQUID","TROUT","TUNA"],

"boardCharacters":[
["S","N","A","P","P","E","R","O","K"],
["Q","D","A","N","U","T","M","N","H"],
["U","Y","U","M","Q","U","K","T","K"],
["I","Z","S","U","P","O","T","C","O"],
["D","E","T","S","H","R","I","M","P"],
["I","B","L","S","I","T","A","M","M"],
["C","J","R","E","L","J","C","W","N"],
["P","O","L","L","A","C","S","Y","N"],
["R","E","T","S","B","O","L","V","M"]
],

"wordPlacements":[
{"word":"LOBSTER","row":8,"col":6,"h":-1,"v":0},
{"word":"MUSSELS","row":2,"col":3,"h":0,"v":1},
{"word":"OCTOPUS","row":3,"col":8,"h":-1,"v":0},
{"word":"PRAWN","row":3,"col":4,"h":1,"v":1},
{"word":"SCALLOP","row":7,"col":6,"h":-1,"v":0},
{"word":"SHRIMP","row":4,"col":3,"h":1,"v":0},
{"word":"SNAPPER","row":0,"col":0,"h":1,"v":0},
{"word":"SQUID","row":0,"col":0,"h":0,"v":1},
{"word":"TROUT","row":5,"col":5,"h":0,"v":-1},
{"word":"TUNA","row":1,"col":5,"h":-1,"v":0}]}
































