{"rows":6,"cols":6,
    "words":["AZURE","CERISE","ROSY","SOOTY","TAN","TEAL"],
    "boardCharacters":[["E","L","T","T","C","Y"],
                       ["R","B","L","A","E","T"],
                       ["U","O","F","N","M","O"],
                       ["Z","Y","S","R","J","O"],
                       ["A","Q","T","Y","S","S"],
                       ["E","S","I","R","E","C"]],
    
    "wordPlacements":[{"word":"AZURE","row":4,"col":0,"h":0,"v":-1},
                      {"word":"CERISE","row":5,"col":5,"h":-1,"v":0},
                      {"word":"ROSY","row":1,"col":0,"h":1,"v":1},
                      {"word":"SOOTY","row":5,"col":5,"h":0,"v":-1},
                      {"word":"TAN","row":3,"col":0,"h":0,"v":1},
                      {"word":"TEAL","row":5,"col":5,"h":-1,"v":0}
                      ]}


















































































































