{"rows":12,"cols":12,
    "words":["BEAMING","BRILLIANT","CHROMATICITY","COLORFUL","DELICATE","FLAMBOYANT","FLAMING","GLITTERRING"],
    "boardCharacters":[["G","N","I","R","R","E","T","T","I","L","G","C"],
                       ["A","C","B","N","B","O","V","M","W","R","N","H"],
                       ["N","E","R","D","E","W","F","M","E","C","E","R"],
                       ["D","K","I","D","L","L","Z","U","T","O","J","O"],
                       ["Y","G","L","U","A","N","M","W","A","L","M","M"],
                       ["B","P","L","M","T","Q","L","K","C","O","U","A"],
                       ["O","E","I","C","Q","X","W","J","I","R","R","T"],
                       ["T","N","A","Y","O","B","M","A","L","F","O","I"],
                       ["G","N","N","M","N","C","U","W","E","U","L","C"],
                       ["K","X","T","B","I","A","L","M","D","L","C","I"],
                       ["W","I","I","U","V","N","O","Q","Y","Q","Q","T"],
                       ["Y","I","M","L","I","M","G","K","T","C","Y","Y"]],
    
    "wordPlacements":[{"word":"BEAMING","row":5,"col":0,"h":1,"v":1},
                      {"word":"BRILLIANT","row":2,"col":2,"h":0,"v":1},
                      {"word":"CHROMATICITY","row":11,"col":11,"h":0,"v":1},
                      {"word":"COLORFUL","row":9,"col":9,"h":0,"v":1},
                      {"word":"DELICATE","row":8,"col":8,"h":0,"v":-1},
                      {"word":"FLAMBOYANT","row":9,"col":9,"h":-1,"v":0},
                      {"word":"FLAMING","row":6,"col":6,"h":-1,"v":1},
                      {"word":"GLITTERRING","row":10,"col":10,"h":-1,"v":0}
                      ]}









































































































