{"rows":9,"cols":9,
    "words":["BICYCLES","BLOCKS","BUBBLES","BUTTER","CANDY","CAPS","CARAMEL","CARNIVALS","CARS","CARTOONS"],
    "boardCharacters":[["K","B","G","X","E","Y","L","J","L"],
                       ["S","U","U","H","Q","Q","V","E","S"],
                       ["K","T","Y","B","W","S","M","X","U"],
                       ["C","T","D","U","B","A","R","C","N"],
                       ["O","E","N","O","R","L","T","A","Y"],
                       ["L","R","A","A","I","F","E","P","C"],
                       ["B","I","C","Y","C","L","E","S","K"],
                       ["S","L","A","V","I","N","R","A","C"],
                       ["C","A","R","T","O","O","N","S","W"]],
    
    "wordPlacements":[{"word":"BICYCLES","row":6,"col":0,"h":1,"v":0},
                      {"word":"BLOCKS","row":6,"col":0,"h":0,"v":-1},
                      {"word":"BUBBLES","row":1,"col":1,"h":1,"v":1},
                      {"word":"BUTTER","row":1,"col":1,"h":0,"v":1},
                      {"word":"CANDY","row":2,"col":2,"h":0,"v":-1},
                      {"word":"CAPS","row":8,"col":8,"h":-1,"v":-1},
                      {"word":"CARAMEL","row":2,"col":2,"h":1,"v":-1},
                      {"word":"CARNIVALS","row":8,"col":8,"h":-1,"v":0},
                      {"word":"CARS","row":7,"col":7,"h":0,"v":1},
                      {"word":"CARTOONS","row":8,"col":0,"h":1,"v":0}
                      ]}













































































































