{"rows":12,"cols":12,
    "words":["CHOCOLATE","COLLECTIONS","COMPUTERS","ICECREAM","JOKES","JUMPING","SLEEPING","SLIME","STICKERS","SWIMMING"],
    "boardCharacters":[["K","P","C","C","W","Q","P","B","C","G","O","E"],
                       ["Q","L","J","O","K","E","S","H","O","S","F","F"],
                       ["I","D","M","L","M","R","D","L","B","T","M","G"],
                       ["D","C","T","L","M","P","Z","U","B","I","T","N"],
                       ["S","V","E","E","J","W","U","K","M","C","N","I"],
                       ["C","H","O","C","O","L","A","T","E","K","M","M"],
                       ["R","V","Y","T","R","Z","H","O","E","E","D","M"],
                       ["X","G","N","I","P","E","E","L","S","R","Z","I"],
                       ["Y","K","F","O","X","O","A","L","L","S","S","W"],
                       ["A","U","W","N","W","B","I","M","H","T","L","S"],
                       ["O","G","E","S","X","M","R","I","O","C","G","J"],
                       ["K","U","K","D","E","G","N","I","P","M","U","J"]],
    
    "wordPlacements":[{"word":"CHOCOLATE","row":5,"col":0,"h":1,"v":0},
                      {"word":"COLLECTIONS","row":3,"col":0,"h":0,"v":1},
                      {"word":"COMPUTERS","row":2,"col":0,"h":1,"v":1},
                      {"word":"ICECREAM","row":2,"col":0,"h":1,"v":1},
                      {"word":"JOKES","row":2,"col":2,"h":1,"v":0},
                      {"word":"JUMPING","row":11,"col":11,"h":-1,"v":0},
                      {"word":"SLEEPING","row":8,"col":8,"h":-1,"v":0},
                      {"word":"SLIME","row":8,"col":8,"h":-1,"v":1},
                      {"word":"STICKERS","row":9,"col":9,"h":0,"v":1},
                      {"word":"SWIMMING","row":11,"col":11,"h":0,"v":-1}
                      ]}






































































































