{"rows":10,"cols":10,
    "words":["KITES","MAGIC","MONEY","PARROTS","RHYMES","SURPRISES","TRAINS","TROPHIES","WAFFLES","WHISTLES"],
    "boardCharacters":[["Z","D","K","T","N","Q","C","X","K","W"],
                       ["S","S","U","R","P","R","I","S","E","S"],
                       ["T","N","Z","O","H","Q","G","W","L","M"],
                       ["I","R","L","P","M","Y","A","X","S","Q"],
                       ["Z","F","A","H","K","G","M","E","V","V"],
                       ["C","W","H","I","S","T","L","E","S","F"],
                       ["K","W","D","E","N","F","T","W","S","G"],
                       ["V","E","T","S","F","S","C","X","D","G"],
                       ["J","I","P","A","R","R","O","T","S","G"],
                       ["K","C","W","Y","E","N","O","M","I","0"]],
    
    "wordPlacements":[{"word":"KITES","row":9,"col":0,"h":1,"v":-1},
                      {"word":"MAGIC","row":6,"col":6,"h":0,"v":-1},
                      {"word":"MONEY","row":7,"col":7,"h":-1,"v":0},
                      {"word":"PARROTS","row":2,"col":2,"h":1,"v":0},
                      {"word":"RHYMES","row":3,"col":3,"h":1,"v":1},
                      {"word":"SURPRISES","row":1,"col":1,"h":1,"v":0},
                      {"word":"TRAINS","row":2,"col":2,"h":1,"v":1},
                      {"word":"TROPHIES","row":3,"col":0,"h":0,"v":1},
                      {"word":"WAFFLES","row":2,"col":2,"h":1,"v":-1},
                      {"word":"WHISTLES","row":1,"col":1,"h":1,"v":0}
                      ]}








































































































