{"rows":12,"cols":12,
    "words":["BACKGROUND","CULTIVATION","CURRICULUM","ENROLMENT","KNOWLEDGE","PEDAGOGY","PREPARATION","SCHOLARSHIP"],
    "boardCharacters":[["Q","P","E","D","A","G","O","G","Y","T","Q","B"],
                       ["C","A","G","S","V","P","X","W","N","I","A","M"],
                       ["U","U","D","E","E","U","O","E","S","C","U","F"],
                       ["L","L","E","P","Q","R","M","Z","K","L","G","H"],
                       ["T","Q","L","V","F","L","R","G","U","P","M","P"],
                       ["I","J","W","F","O","C","R","C","W","F","L","A"],
                       ["V","J","O","R","X","O","I","W","C","L","Z","Q"],
                       ["A","E","N","W","U","R","O","G","L","U","U","F"],
                       ["T","E","K","N","R","S","J","O","S","I","O","H"],
                       ["I","D","D","U","U","D","N","H","G","O","Q","J"],
                       ["O","S","C","H","O","L","A","R","S","H","I","P"],
                       ["N","O","I","T","A","R","A","P","E","R","P","W"]],
    
    "wordPlacements":[{"word":"BACKGROUND","row":11,"col":0,"h":-1,"v":1},
                      {"word":"CULTIVATION","row":1,"col":0,"h":0,"v":1},
                      {"word":"CURRICULUM","row":2,"col":2,"h":1,"v":-1},
                      {"word":"ENROLMENT","row":1,"col":1,"h":1,"v":-1},
                      {"word":"KNOWLEDGE","row":2,"col":2,"h":0,"v":-1},
                      {"word":"PEDAGOGY","row":1,"col":0,"h":1,"v":0},
                      {"word":"PREPARATION","row":10,"col":10,"h":-1,"v":0},
                      {"word":"SCHOLARSHIP","row":1,"col":1,"h":1,"v":0}
                      ]}





































































































