{"rows":8,"cols":8,
    "words":["PULSAR","QUASAR","PARTICLE","LUNAR","COMET","MOON","STAR","WAVE"],
    "boardCharacters":[["T","E","R","W","U","T","H","Q"],
                       ["E","E","P","A","A","C","F","U"],
                       ["M","N","L","U","N","V","E","A"],
                       ["O","I","Z","N","L","U","E","S"],
                       ["C","A","O","N","Y","S","L","A"],
                       ["N","O","S","T","A","R","E","R"],
                       ["M","E","K","F","L","T","B","R"],
                       ["E","L","C","I","T","R","A","P"]],
    
    "wordPlacements":[{"word":"PULSAR","row":1,"col":2,"h":1,"v":1},
                      {"word":"QUASAR","row":0,"col":7,"h":0,"v":1},
                      {"word":"PARTICLE","row":7,"col":7,"h":-1,"v":0},
                      {"word":"LUNAR","row":4,"col":6,"h":-1,"v":-1},
                      {"word":"COMET","row":4,"col":0,"h":0,"v":-1},
                      {"word":"MOON","row":6,"col":0,"h":1,"v":-1},
                      {"word":"STAR","row":5,"col":2,"h":1,"v":0},
                      {"word":"WAVE","row":0,"col":3,"h":1,"v":1}
                      ]}
