{"rows":9,"cols":9,
    "words":["VOLCANIC","CRAGGY","SPECIES","CHUNK","ISLAND","SOUTH","SURFACE","ALGAE","SEABIRD"],
    "boardCharacters":[["S","E","F","Y","K","F","I","M","T"],
                       ["G","O","A","N","G","A","C","R","S"],
                       ["N","O","U","G","U","G","E","I","S"],
                       ["H","H","V","T","L","A","A","S","E"],
                       ["C","O","S","E","H","A","F","P","I"],
                       ["C","I","N","A","C","L","O","V","C"],
                       ["E","C","A","F","R","U","S","J","E"],
                       ["S","E","A","B","I","R","D","C","P"],
                       ["I","S","L","A","N","D","N","T","S"]],
    
    "wordPlacements":[{"word":"VOLCANIC","row":7,"col":5,"h":-1,"v":0},
                      {"word":"CRAGGY","row":5,"col":8,"h":0,"v":-1},
                      {"word":"SPECIES","row":8,"col":8,"h":0,"v":-1},
                      {"word":"CHUNK","row":5,"col":0,"h":1,"v":-1},
                      {"word":"ISLAND","row":8,"col":0,"h":1,"v":0},
                      {"word":"SOUTH","row":0,"col":0,"h":1,"v":1},
                      {"word":"SURFACE","row":6,"col":6,"h":-1,"v":0},
                      {"word":"ALGAE","row":4,"col":6,"h":-1,"v":-1},
                      {"word":"SEABIRD","row":7,"col":0,"h":1,"v":0}
                      ]}
