{"rows":6,"cols":6,"words":["BEAR","CAMEL","HORSE","LION","SHEEP","TIGER","WOLF"],

"boardCharacters":[
["P","U","B","P","R","L"],
["H","W","E","E","E","S"],
["B","O","A","E","G","N"],
["D","L","R","H","I","O"],
["H","F","H","S","T","I"],
["G","C","A","M","E","L"]],

"wordPlacements":[
{"word":"BEAR","row":0,"col":2,"h":0,"v":1},
{"word":"CAMEL","row":5,"col":1,"h":1,"v":0},
{"word":"HORSE","row":1,"col":0,"h":1,"v":1},
{"word":"LION","row":5,"col":5,"h":0,"v":-1},
{"word":"SHEEP","row":4,"col":3,"h":0,"v":-1},
{"word":"TIGER","row":4,"col":4,"h":0,"v":-1},
{"word":"WOLF","row":1,"col":1,"h":0,"v":1}]}



























































