{"rows":6,"cols":6,
"words":["ANT","BEE","BUG","FLEA","FLY","GRUB","SNAIL","TICK"],

"boardCharacters":[
["I","D","B","U","R","G"],
["D","V","E","E","S","U"],
["O","K","A","N","T","B"],
["E","C","A","E","E","F"],
["S","I","H","E","L","G"],
["L","T","Y","Y","H","F"]],

"wordPlacements":[
{"word":"ANT","row":2,"col":2,"h":1,"v":0},
{"word":"BEE","row":2,"col":5,"h":-1,"v":1},
{"word":"BUG","row":2,"col":5,"h":0,"v":-1},
{"word":"FLEA","row":5,"col":5,"h":-1,"v":-1},
{"word":"FLY","row":3,"col":5,"h":-1,"v":1},
{"word":"GRUB","row":0,"col":5,"h":-1,"v":0},
{"word":"SNAIL","row":1,"col":4,"h":-1,"v":1},
{"word":"TICK","row":5,"col":1,"h":0,"v":-1}]}





















































































