{"rows":8,"cols":8,

"words":["CATFISH","CRAB","EEL","OCTOPUS","SALMON","SEAL","SHARK","STARFISH","TUNA"],

"boardCharacters":[
["V","N","M","L","S","R","O","S"],
["C","B","T","E","I","D","C","T"],
["A","D","A","E","K","D","T","A"],
["T","L","I","R","I","U","O","R"],
["F","I","A","T","C","J","P","F"],
["I","H","B","N","U","U","U","I"],
["S","A","L","M","O","N","S","S"],
["H","O","P","B","P","D","A","H"]],

"wordPlacements":[
{"word":"CATFISH","row":1,"col":0,"h":0,"v":1},
{"word":"CRAB","row":4,"col":4,"h":-1,"v":-1},
{"word":"EEL","row":2,"col":3,"h":0,"v":-1},
{"word":"OCTOPUS","row":0,"col":6,"h":0,"v":1},
{"word":"SALMON","row":6,"col":0,"h":1,"v":0},
{"word":"SEAL","row":0,"col":4,"h":-1,"v":1},
{"word":"SHARK","row":6,"col":0,"h":1,"v":-1},
{"word":"STARFISH","row":0,"col":7,"h":0,"v":1},
{"word":"TUNA","row":4,"col":3,"h":1,"v":1}]}
























































































