{"rows":9,"cols":9,

"words":["DOLPHIN","JELLYFISH","LOCUST","MAGGOT","PENGUIN","PIRANHA","PRAWNS","WASP"],

"boardCharacters":[
["D","A","H","V","S","W","D","T","P"],
["Z","F","H","Y","W","O","E","O","E"],
["T","X","Z","N","L","M","T","G","N"],
["W","A","S","P","A","S","J","G","G"],
["S","M","H","M","U","R","W","A","U"],
["P","I","E","C","P","D","I","M","I"],
["N","R","O","V","S","Y","A","P","N"],
["C","L","S","N","W","A","R","P","E"],
["H","S","I","F","Y","L","L","E","J"]],

"wordPlacements":[
{"word":"DOLPHIN","row":0,"col":6,"h":-1,"v":1},
{"word":"JELLYFISH","row":8,"col":8,"h":-1,"v":0},
{"word":"LOCUST","row":7,"col":1,"h":1,"v":-1},
{"word":"MAGGOT","row":5,"col":7,"h":0,"v":-1},
{"word":"PENGUIN","row":0,"col":8,"h":0,"v":1},
{"word":"PIRANHA","row":6,"col":7,"h":-1,"v":-1},
{"word":"PRAWNS","row":7,"col":7,"h":-1,"v":0},
{"word":"WASP","row":3,"col":0,"h":1,"v":0}]}


































































































